{
  "project_info": {
    "project_number": "603385110565",
    "firebase_url": "https://diantarin-b6174.firebaseio.com",
    "project_id": "diantarin-b6174",
    "storage_bucket": "diantarin-b6174.appspot.com"
  },
  "client": [
    {
      "client_info": {
        "mobilesdk_app_id": "1:603385110565:android:9a395e5a80417b0e",
        "android_client_info": {
          "package_name": "id.co.ikin.dodolan"
        }
      },
      "oauth_client": [
        {
          "client_id": "603385110565-8eagu5ar46hgsmrqtv794p18gaebt00t.apps.googleusercontent.com",
          "client_type": 1,
          "android_info": {
            "package_name": "id.co.ikin.dodolan",
            "certificate_hash": "ab87585e9185cdd8368ac8c5c77f9b695e1a35a4"
          }
        },
        {
          "client_id": "603385110565-b48cdpm88eqnaa40vb4s2vgq57u4mc4u.apps.googleusercontent.com",
          "client_type": 3
        }
      ],
      "api_key": [
        {
          "current_key": "AIzaSyDCSTfsPMZGVI-iQ9BNeUyV_mq1cJGMgqA"
        }
      ],
      "services": {
        "analytics_service": {
          "status": 1
        },
        "appinvite_service": {
          "status": 2,
          "other_platform_oauth_client": [
            {
              "client_id": "603385110565-b48cdpm88eqnaa40vb4s2vgq57u4mc4u.apps.googleusercontent.com",
              "client_type": 3
            }
          ]
        },
        "ads_service": {
          "status": 2
        }
      }
    }
  ],
  "configuration_version": "1"
}